{
  "access_token":"ya29.a0AfH6SMCb8oTFwrK1IL__DwTJ0qTpeQ7TZLWTdwmOMaX8wqcsuWOo51b9OcVk7ViIo0vFDOZab697apI7Up_eMifpmKKCYO-KaEMknYEpn1h-J2A80TRjedHQE6hP2_v5Bm_dO-t1GGS04BUbkU6mBfnG4ojnmS2luQM","refresh_token":"1//0foiTzwPgkRyxCgYIARAAGA8SNwF-L9IrCd47CWa0BAiksQi8ieakxHNxVN57hNb_oToym9BlSsTqXxT9JbNuPYa0yQF8bXy6zXs","scope":"https://www.googleapis.com/auth/drive","token_type":"Bearer","expiry_date":1603739198254

}
